…
## Warning: package 'gghighlight' was built under R version 3.6.3

ob <- trendy("obama")
get_interest_country(ob)

## Warning: `...` is not empty.
## 
## We detected these problematic arguments:
## * `needs_dots`
## 
## These dots only exist to allow future extensions and should be empty.
## Did you misspecify an argument?

## # A tibble: 250 x 5
##    location             hits keyword geo   gprop
##    <chr>               <int> <chr>   <chr> <chr>
##  1 Burundi                NA obama   world web  
##  2 Liberia                NA obama   world web  
##  3 U.S. Virgin Islands    NA obama   world web  
##  4 Equatorial Guinea      NA obama   world web  
##  5 Cuba                   NA obama   world web  
##  6 Solomon Islands        NA obama   world web  
##  7 Malawi                 NA obama   world web  
##  8 United States         100 obama   world web  
##  9 Congo - Brazzaville    NA obama   world web  
## 10 Cameroon               NA obama   world web  
## # ... with 240 more rows
…
