…
data

## Warning: `...` is not empty.
## 
## We detected these problematic arguments:
## * `needs_dots`
## 
## These dots only exist to allow future extensions and should be empty.
## Did you misspecify an argument?

## # A tibble: 197 x 10
##    rivalryno rivalryname   sidea  sideb  styear endyear region type1 type2 type3
##        <dbl> <chr>         <chr>  <chr>   <dbl>   <dbl> <chr>  <chr> <chr> <chr>
##  1         1 Austria-Fran~ Austr~ France   1494    1918 Europ~ spat~ posi~ <NA> 
##  2         2 Austria-Otto~ Austr~ Ottom~   1494    1908 Europ~ spat~ posi~ <NA> 
##  3         4 France-Spain  France Spain    1494    1700 Europ~ posi~ spat~ <NA> 
##  4         3 Britain-Fran~ Great~ France   1494    1716 Europ~ spat~ posi~ <NA> 
##  5         5 Ottoman Empi~ Ottom~ Spain    1494    1585 Europ~ spat~ posi~ <NA> 
##  6         6 Ottoman Empi~ Ottom~ Venice   1494    1717 Europ~ spat~ posi~ <NA> 
##  7         7 Portugal-Spa~ Portu~ Spain    1494    1580 Europ~ spat~ posi~ <NA> 
##  8         8 Portugal-Ven~ Portu~ Venice   1494    1580 Europ~ posi~ <NA>  <NA> 
##  9         9 Ottoman Empi~ Ottom~ Portu~   1501    1580 Europ~ posi~ <NA>  <NA> 
## 10        10 Britain-Spai~ Brita~ Spain    1568    1667 Europ~ posi~ spat~ <NA> 
## # ... with 187 more rows
…
